CID;TABCD;DCOMMENT;VERSION;VERSIONDESCRIPTION
4;1;Austria;;
6;1;Belgium;;
59;1;China;;
11;25;Czechia;;
12;9;Denmark;;
15;17;Finland;;
16;32;France;;
25;1;Italy;;
39;17;The Netherlands;;
40;49;Norway;
49;17;Spain;;
50;33;Sweden;;
51;9;Switzerland;;
55;7;UK-Trafficmaster;;
55;10;UK-ITIS;;
58;1;Germany;;
998;17;Dubai;;
